﻿  Album.cpp
  AlbumManager.cpp
  MemoryAccess.cpp
  Picture.cpp
  User.cpp
  Gallery.cpp
  Generating Code...
  Gallery.vcxproj -> C:\Users\משתמש\Documents\Magshimin\Gallery\Gallery\Debug\Gallery.exe
